<!-- Generated by IcoMoon.io -->
<svg version="1.1" xmlns="http://www.w3.org/2000/svg" width="1024" height="1024" viewBox="0 0 1024 1024">
<path d="M989.568 336.171c0-222.123-145.536-287.232-145.536-287.232-73.387-33.707-199.424-47.872-330.283-48.939h-3.243c-130.901 1.067-256.853 15.232-330.24 48.939 0 0-145.536 65.109-145.536 287.232 0 50.859-0.981 111.701 0.64 176.171 5.291 217.259 39.851 431.317 240.683 484.48 92.587 24.491 172.117 29.653 236.16 26.112 116.139-6.4 181.333-41.472 181.333-41.472l-3.84-84.267s-82.987 26.155-176.171 22.997c-92.373-3.157-189.824-9.941-204.757-123.349-1.305-9.295-2.050-20.032-2.050-30.944 0-0.296 0.001-0.592 0.002-0.889v0.046s90.667 22.187 205.525 27.435c70.229 3.2 136.107-4.139 203.008-12.075 128.299-15.317 240-94.379 254.037-166.613 22.059-113.707 20.267-277.632 20.267-277.632zM817.877 622.421h-106.539v-261.077c0-55.040-23.168-82.944-69.461-82.944-51.2 0-76.885 33.109-76.885 98.645v142.891h-105.941v-142.933c0-65.536-25.685-98.645-76.885-98.645-46.293 0-69.461 27.947-69.461 82.944v261.077h-106.539v-268.928c0-54.997 13.995-98.688 42.112-130.987 29.013-32.341 66.944-48.896 114.091-48.896 54.528 0 95.829 20.949 123.136 62.891l26.496 44.501 26.539-44.501c27.307-41.941 68.608-62.891 123.136-62.891 47.104 0 85.077 16.555 114.091 48.896 28.075 32.299 42.069 75.989 42.069 130.987v268.971z"></path>
</svg>
